<?xml version="1.0" encoding="UTF-8"?>
<kml xmlns="http://earth.google.com/kml/2.2">
<Document>
  <name>TCC FURB Mapa</name>
  <description><![CDATA[]]></description>
  <Style id="style1">
    <IconStyle>
      <Icon>
        <href></href>
      </Icon>
    </IconStyle>
  </Style>
  <Style id="style2">
    <IconStyle>
      <Icon>
        <href>http://maps.gstatic.com/mapfiles/ms2/micons/blue-dot.png</href>
      </Icon>
    </IconStyle>
  </Style>
  <Placemark>
    <name>Campus 1, Bloco T, DSC, Sala Dalton</name>
    <description><![CDATA[26°54'19.0"S 49°04'47.6"W<br>]]></description>
    <styleUrl>#style1</styleUrl>
    <Point>
      <coordinates>-49.079887,-26.905285,0.000000</coordinates>
    </Point>
  </Placemark>
  <Placemark>
    <name>Campus 1, Bloco A, Entrada Principal</name>
    <description><![CDATA[26°54'22.5"S 49°04'42.5"W<br><img src="https://cbks0.google.com/cbk?output=thumbnail&amp;w=90&amp;h=68&amp;ll=-26.906247,-49.078484&amp;thumb=0">]]></description>
    <styleUrl>#style2</styleUrl>
    <Point>
      <coordinates>-49.078484,-26.906246,0.000000</coordinates>
    </Point>
  </Placemark>
</Document>
</kml>
